{
  "Add": {
    "message": "Tambah"
  },
  "Add.accesskey": {
    "message": "a"
  },
  "AdditionalPermissions": {
    "message": "Tambahan perijinan untuk situs terpercaya"
  },
  "AdditionalRestrictions": {
    "message": "Pembatasan tambahan untuk situs tidak terpercaya"
  },
  "Advanced": {
    "message": "Canggih"
  },
  "Allow": {
    "message": "Ijinkan"
  },
  "Allow.accesskey": {
    "message": "I"
  },
  "AllowBookmarks": {
    "message": "Ijinkan bookmarks"
  },
  "AllowClipboard": {
    "message": "Perbolehkan copy dan paster rich text dari clipboard eksternal"
  },
  "AllowLocalLinks": {
    "message": "Ijinkan link lokal"
  },
  "AllowPage": {
    "message": "Bolehkan semua halaman ini"
  },
  "AllowPage.accesskey": {
    "message": "A"
  },
  "AllowPing": {
    "message": "Ijinkan <A PING...>"
  },
  "AllowViaBookmarks": {
    "message": "Ijinkan situs dibuka melalui bookmarks"
  },
  "AlwaysBlockUntrustedContent": {
    "message": "Blok setiap obyek yang datang dari situs yang tidak dipercaya"
  },
  "Appearance": {
    "message": "Penampilan"
  },
  "AutoAllowTopLevel": {
    "message": "Ijinkan sementara situs top-level untuk awal"
  },
  "AutoReload": {
    "message": "Otomatis mengambil ulang halaman yang terpengaruh saat perijinan berubah"
  },
  "BaseDom": {
    "message": "Dasar Domain level ke-2 (noscript.net)"
  },
  "BlockedObjects": {
    "message": "Obyek yang Diblok"
  },
  "BookmarkSync": {
    "message": "Backup NoScript configuration in a bookmark for easy synchronization"
  },
  "ClearClickDescription": {
    "message": "NoScript menginterupsi interaksi mouse atau keyboard dengan elemen tersembunyi yang terpisah. Klik pada gambar di atas memilih antara versi terhalang dan jelas."
  },
  "ClearClickHeader": {
    "message": "Clickjacking Potensial / Mencoba memakai ulang UI!"
  },
  "ClearClickOpt": {
    "message": "Proteksi ClearClick pada halaman…"
  },
  "ClearClickReport": {
    "message": "Report"
  },
  "ClearClickReport.accesskey": {
    "message": "R"
  },
  "ClearClickReportId": {
    "message": "Report ID:"
  },
  "ClearClickTitle": {
    "message": "Peringatan ClearClick"
  },
  "Close": {
    "message": "Tutup"
  },
  "CollapseBlockedObjects": {
    "message": "Gabung obyek yang diblok"
  },
  "ConfirmUnblock": {
    "message": "Konfirmasi ulang sebelum membuka sementara penghalang suatu objek"
  },
  "ContentBlocker": {
    "message": "Apply these restrictions to trusted sites too"
  },
  "CtxMenu": {
    "message": "Menu kontekstual"
  },
  "DefaultPolicies": {
    "message": "Kebijakan awal"
  },
  "Description": {
    "message": "Perlindungan tambahan untuk FireFox Anda: NoScript mengijinkan JavaScript, Flash (dan plugin lainnya) hanya untuk domain terpercaya pilihan Anda (misal: situs web-banking personal). Daftar putih ini menjadi dasar perlindungan dari penyalahgunaan lubang keamanan (yang diketahui maupun tidak) tanpa kehilangan fungsionalitas... Para ahli percaya: FireFox lebih aman bersama NoScript :-)"
  },
  "Embeddings": {
    "message": "Obyek yang ditanam"
  },
  "Exceptions": {
    "message": "Pengecualian..."
  },
  "Export": {
    "message": "Ekspor"
  },
  "Export.accesskey": {
    "message": "E"
  },
  "FixLinks": {
    "message": "Berusaha memperbaiki link JavaScript"
  },
  "Forbid": {
    "message": "Larang"
  },
  "Forbid.accesskey": {
    "message": "L"
  },
  "ForbidBookmarklets": {
    "message": "Larang bookmarklets"
  },
  "ForbidFlash": {
    "message": "Larang Adobe® Flash®"
  },
  "ForbidFrames": {
    "message": "Forbid <FRAMES>"
  },
  "ForbidIFrames": {
    "message": "Forbid <IFRAME>"
  },
  "ForbidJava": {
    "message": "Larang Java™"
  },
  "ForbidMetaRefresh": {
    "message": "Larang perubahan arah META didalam elemen <NOSCRIPT>"
  },
  "ForbidMetaRefresh.accesskey": {
    "message": "M"
  },
  "ForbidPing": {
    "message": "Larang <A PING...>"
  },
  "ForbidPlugins": {
    "message": "Larang plugin lainnya"
  },
  "ForbidSilverlight": {
    "message": "Forbid Microsoft® Silverlight™"
  },
  "ForbidXSLT": {
    "message": "Larang XSLT"
  },
  "FrameOptErr.desc": {
    "message": "To protect your security, the publisher of this content does not allow it to be displayed in a frame."
  },
  "FrameOptErr.link": {
    "message": "Click here to open this content in a new window"
  },
  "FrameOptErr.title": {
    "message": "This content cannot be displayed in a frame"
  },
  "FullAddr": {
    "message": "Alamat Lengkap (http://www.noscript.net)"
  },
  "FullDom": {
    "message": "Domain Lengkap (www.noscript.net)"
  },
  "General": {
    "message": "Umum"
  },
  "GloballyEnabled": {
    "message": "Seluruh naskah diperbolehkan (berbahaya)"
  },
  "Https": {
    "message": "HTTPS"
  },
  "Https.always": {
    "message": "Selalu"
  },
  "Https.behavior": {
    "message": "Perilaku"
  },
  "Https.cookies": {
    "message": "Cookie"
  },
  "Https.description": {
    "message": "Larangkan konten aktif web kecuali datang dari koneksi aman (HTTPS):"
  },
  "Https.never": {
    "message": "Tidak pernah"
  },
  "Https.proxy": {
    "message": "Ketika menggunakan proxy (direkomendasikan dengan Tor)"
  },
  "HttpsFaq": {
    "message": "HTTPS FAQ…"
  },
  "HttpsFaq.accesskey": {
    "message": "Q"
  },
  "HttpsForced": {
    "message": "Paksa situs berikut ini untuk menggunakan koneksi aman (HTTPS):"
  },
  "HttpsForcedExceptions": {
    "message": "Tidak pernah paksakan koneksi aman (HTTPS) untuk situs berikut ini:"
  },
  "Import": {
    "message": "Impor"
  },
  "Import.accesskey": {
    "message": "I"
  },
  "KeepLocked": {
    "message": "Jaga elemen ini terkunci (direkomendasikan)"
  },
  "MatchSample": {
    "message": "Contoh pencocokan pola:"
  },
  "Next": {
    "message": "Next"
  },
  "NoUntrustedPlaceholder": {
    "message": "Tidak ada tempat tetap untuk obyek yang datang dari situs yang tidak dipercaya"
  },
  "Notifications": {
    "message": "Pemberitahuan"
  },
  "Notify": {
    "message": "Tampilkan pesan tetang naskah yang dihalangi"
  },
  "Notify.bottom": {
    "message": "Taruh pesan di bawah"
  },
  "NselForce": {
    "message": "Tampikan elemen <NOSCRIPT> yang mengikuti <SCRIPT> yang dihalangi"
  },
  "NselNever": {
    "message": "Sembunyikan elemen <NOSCRIPT>"
  },
  "OptBlockCssScanners": {
    "message": "halangi pemindai berdasar CSS"
  },
  "OptFilterXGet": {
    "message": "Bersihkan permintaan cross-site yang mencurigakan"
  },
  "OptFilterXPost": {
    "message": "Ubah permintaan POST cross-site menjadi permintaan GET tanpa data"
  },
  "Options": {
    "message": "Pilihan..."
  },
  "Options.accesskey": {
    "message": "P"
  },
  "OptionsLong": {
    "message": "Pilihan NoScript"
  },
  "OptionsWidth": {
    "message": "40em"
  },
  "Permissions": {
    "message": "Ijin-ijin"
  },
  "PermissionsText": {
    "message": "Anda dapat menentukan situs web mana yang diijinkan menjalankan naskah. Masukkan alamat atau domain (contoh: \"http://www.site.com\" atau \"site.com\") yang akan diberi ijin kemudian klik Ijinkan."
  },
  "Plugins": {
    "message": "Plugins"
  },
  "Policies": {
    "message": "Kebijakan"
  },
  "Prev": {
    "message": "Previuous"
  },
  "Refresh": {
    "message": "Segarkan"
  },
  "ReloadWarn": {
    "message": "Pilihan ini akan berpengaruh pada halaman yang baru atau yang baru diambil ulang"
  },
  "RemoveSelected": {
    "message": "Hapus situs terpilih"
  },
  "Reset": {
    "message": "Reset"
  },
  "Reset.accesskey": {
    "message": "R"
  },
  "ResetDef": {
    "message": "Reset ke awal"
  },
  "ResetDef.accesskey": {
    "message": "r"
  },
  "RevokeTemp": {
    "message": "Mencabut Izin Sementara"
  },
  "RevokeTemp.accesskey": {
    "message": "T"
  },
  "SecureCookies": {
    "message": "Hidupkan Manajemen Otomatis Keamanan Cookie"
  },
  "SecureCookiesExceptions": {
    "message": "Abaikan set cookie tidak aman melalui HTTPS dari situs berikut ini:"
  },
  "SecureCookiesForced": {
    "message": "Enkripsikan paksa semua set cookie melalui HTTPS dari situs berikut ini:"
  },
  "SecurityManager": {
    "message": "Manajer Keamanan"
  },
  "Show": {
    "message": "Tampilkan..."
  },
  "ShowConsole": {
    "message": "Tampilkan Penyangga"
  },
  "ShowConsole.accesskey": {
    "message": "P"
  },
  "ShowPlaceholder": {
    "message": "Tampilkan ikon placeholder"
  },
  "SiteManager": {
    "message": "Manajer Situs"
  },
  "SitePolicies": {
    "message": "Kebijakan Situs"
  },
  "StatusIcon": {
    "message": "Ikon papan status"
  },
  "StatusLabel": {
    "message": "Label papan status"
  },
  "TempAllowPage": {
    "message": "Sementara bolehkan semua halaman ini"
  },
  "TempAllowPage.accesskey": {
    "message": "P"
  },
  "TempCmd": {
    "message": "Ijinkan sementara [...]"
  },
  "TempToPerm": {
    "message": "Buat izin permanen halaman"
  },
  "TempToPerm.accesskey": {
    "message": "m"
  },
  "ToolbarToggle": {
    "message": "Klik kiri pada toolbar NoScript membalikan"
  },
  "TruncateTitle": {
    "message": "Potong judul dokumen"
  },
  "Trust": {
    "message": "Tandai sebagai Terpercaya"
  },
  "Trust.accesskey": {
    "message": "T"
  },
  "Trusted": {
    "message": "Terpercaya"
  },
  "TrustedPagesAdj": {
    "message": "terpercaya"
  },
  "Unknown": {
    "message": "Tidak diketahui"
  },
  "UnsafeReload": {
    "message": "Ambil ulang yang tidak aman"
  },
  "UnsafeReload.accesskey": {
    "message": "u"
  },
  "Untrust": {
    "message": "Tandai sebagai Tidak Terpercaya"
  },
  "Untrust.accesskey": {
    "message": "X"
  },
  "Untrusted": {
    "message": "Tidak Terpercaya"
  },
  "UntrustedPagesAdj": {
    "message": "tidak terpercaya"
  },
  "WebAddress": {
    "message": "Alamat situs web:"
  },
  "Whitelist": {
    "message": "Daftar putih"
  },
  "Xss": {
    "message": "XSS"
  },
  "Xss.accesskey": {
    "message": "X"
  },
  "XssExceptions": {
    "message": "Pengecualian Perlindungan Anti-XSS"
  },
  "XssExceptions.description": {
    "message": "Pencocokan tujuan regular expression ini tidak akan dilindungi dari XSS"
  },
  "XssFaq": {
    "message": "XSS FAQ..."
  },
  "XssFaq.accesskey": {
    "message": "Q"
  },
  "about": {
    "message": "Tentang $1"
  },
  "allowGlobal": {
    "message": "Ijinkan semua naskah (berbahaya)"
  },
  "allowLocal": {
    "message": "Ijinkan $1"
  },
  "allowTemp": {
    "message": "Ijinkan sementara $1"
  },
  "allowed.glb": {
    "message": "Bahaya! Semua naskah diperbolehkan"
  },
  "allowed.no": {
    "message": "Larang naskah"
  },
  "allowed.prt": {
    "message": "Naskah sebagian diperbolehkan"
  },
  "allowed.yes": {
    "message": "Naskah diperbolehkan"
  },
  "alwaysAsk": {
    "message": "Selalu tanyakan untuk konfirmasi"
  },
  "audio.samples": {
    "message": "Contoh suara"
  },
  "bookmarkSync.message": {
    "message": "This bookmark is NOT meant to be opened, but to be synchronized using a service such as Weave or the XMarks extension."
  },
  "bookmarkSync.title": {
    "message": "NoScript Configuration Bookmark"
  },
  "changelog": {
    "message": "Catatan Perubahan"
  },
  "changelog.tip": {
    "message": "Tampilkan Catatan Perubahan"
  },
  "confirm": {
    "message": "Anda yakin?"
  },
  "distrust": {
    "message": "Tandai $1 sebagai Tidak terpercaya"
  },
  "extensionContributors": {
    "message": "Kontributor:"
  },
  "extensionContributors.tip": {
    "message": "Orang-orang yang perlu anda beri ucapan terima kasih untuk ekstension ini"
  },
  "extensionCreator.tip": {
    "message": "Datangi homepage Penulis"
  },
  "extensionCreatorLabel": {
    "message": "Penulis:"
  },
  "extensionHomepage.tip": {
    "message": "Datangi homepage ekstension"
  },
  "extensions.{73a6fe31-595d-460b-a920-fcc0f8843232}.description": {
    "message": "Perlindungan tambahan untuk FireFox Anda: NoScript mengijinkan JavaScript, Java (dan plugin lainnya) hanya untuk domain terpercaya pilihan Anda (misal: situs web-banking personal). Daftar putih ini menjadi dasar perlindungan dari penyalahgunaan lubang keamanan (yang diketahui maupun tidak) tanpa kehilangan fungsionalitas... Para ahli percaya: FireFox lebih aman bersama NoScript :-)"
  },
  "forbidGlobal": {
    "message": "Larang semua naskah"
  },
  "forbidLocal": {
    "message": "Larang $1"
  },
  "global.warning.text": {
    "message": "Naskah dari semua situs akan diperbolehkan.\n Ini membuka potensi bahaya.\n Anda yakin untuk meneruskannya?"
  },
  "global.warning.title": {
    "message": "Parhatian!"
  },
  "informaction.tip": {
    "message": "Datangi homepage InformAction"
  },
  "license": {
    "message": "Lisensi"
  },
  "license.tip": {
    "message": "Baca lisensi end-user"
  },
  "logo.tip": {
    "message": "Datangi homepage ekstension"
  },
  "metaRefresh.notify": {
    "message": "NoScript menghalangi perubahan arah <META> dari dalam unsur <NOSCRIPT>: $1 dalam $2 detik."
  },
  "metaRefresh.notify.follow": {
    "message": "Ikuti perubahan arah"
  },
  "metaRefresh.notify.follow.accessKey": {
    "message": "I"
  },
  "notify.options": {
    "message": "Pilihan"
  },
  "notify.options.accessKey": {
    "message": "P"
  },
  "notifyHide": {
    "message": "Sembunyikan setelah $1 detik"
  },
  "reset.title": {
    "message": "Reset NoScript"
  },
  "reset.warning": {
    "message": "SELURUH pilihan NoScript and perijinan situs akan di reset ke nilai awal.\nTindakan ini tidak dapat diulang mundur.\nApakah Anda ingin melanjutkan?"
  },
  "sponsor.tip": {
    "message": "Datangi homepage sponsor"
  },
  "trust": {
    "message": "Percayai $1"
  },
  "unsafeReload.warning": {
    "message": "TIDAK AMAN mengambil ulang benda mencurigakan $1 [$2]\n\n dari [$3]\n\nNoScript tidak akan menjaga permintaan ini!\n"
  },
  "untrustedOrigin": {
    "message": "sumber tidak terpercaya"
  },
  "version": {
    "message": "Versi $1"
  },
  "xss.notify.generic": {
    "message": "NoScript memfilter potensi usaha penaskahan antar situs (XSS) dari $1. Catatan teknis telah ditulis ke Penyangga."
  },
  "xss.notify.showConsole": {
    "message": "Tampilkan Penyangga..."
  },
  "xss.notify.showConsole.accessKey": {
    "message": "P"
  },
  "xss.reason.filterXGet": {
    "message": "Membersihkan permintaan yang mencurigakan. URL [$2] meminta URL asli [$1]. URL yang telah dibersihkan: [$3].)"
  },
  "xss.reason.filterXGetRef": {
    "message": "Membersihkan penunjuk permintaan yang mencurigakan. URL [$2] meminta [$1]. Penunjuk yang telah dibersihkan: [$3].)"
  },
  "xss.reason.filterXPost": {
    "message": "Membersihkan unggah yang mencurigakan dari [$2] ke [$1]: dirubah menjadi permintaan GET hanya-unggah."
  }
}