{
  "Add": {
    "message": "Agregar"
  },
  "Add.accesskey": {
    "message": "A"
  },
  "AdditionalPermissions": {
    "message": "Permisos adicionales para sitios fiables"
  },
  "AdditionalRestrictions": {
    "message": "Restricciones adicionales para sitios no fiables"
  },
  "Advanced": {
    "message": "Avanzado"
  },
  "Allow": {
    "message": "Permitir"
  },
  "Allow.accesskey": {
    "message": "P"
  },
  "AllowBookmarks": {
    "message": "Permitir todos los sitios de marcadores"
  },
  "AllowClipboard": {
    "message": "Permitir copiar y pegar texto enriquecido desde portapapeles externo"
  },
  "AllowLocalLinks": {
    "message": "Permitir enlaces locales"
  },
  "AllowPage": {
    "message": "Admitir toda esta página"
  },
  "AllowPage.accesskey": {
    "message": "A"
  },
  "AllowPing": {
    "message": "Permitir <A PING…>"
  },
  "AllowViaBookmarks": {
    "message": "Permitir la apertura de sitios a través de marcadores"
  },
  "AlwaysBlockUntrustedContent": {
    "message": "Bloquear todos los objetos procedentes de un sitio marcado como no fiable"
  },
  "Appearance": {
    "message": "Apariencia"
  },
  "AutoAllowTopLevel": {
    "message": "Permitir temporalmente por defecto los sitios de máximo nivel"
  },
  "AutoReload": {
    "message": "Recargar automáticamente las páginas afectadas cuando cambie los permisos"
  },
  "BaseDom": {
    "message": "Dominios de segundo nivel (noscript.net)"
  },
  "BlockedObjects": {
    "message": "Objetos bloqueados"
  },
  "BookmarkSync": {
    "message": "Backup NoScript configuration in a bookmark for easy synchronization"
  },
  "ClearClickDescription": {
    "message": "NoScript intercepted a mouse or keyboard interaction with a partially hidden element. Click on the image above to cycle beetween the obstructed and the clear version."
  },
  "ClearClickHeader": {
    "message": "Potential Clickjacking / UI Redressing Attempt!"
  },
  "ClearClickOpt": {
    "message": "ClearClick protection on pages…"
  },
  "ClearClickReport": {
    "message": "Report"
  },
  "ClearClickReport.accesskey": {
    "message": "R"
  },
  "ClearClickReportId": {
    "message": "Report ID:"
  },
  "ClearClickTitle": {
    "message": "ClearClick Warning"
  },
  "Close": {
    "message": "Cerrar"
  },
  "CollapseBlockedObjects": {
    "message": "Contraer objetos bloqueados"
  },
  "ConfirmUnblock": {
    "message": "Pedir confirmación antes de desbloquear temporalmente un objeto"
  },
  "ContentBlocker": {
    "message": "Aplicar estas restricciones también a los sitios fiables"
  },
  "CtxMenu": {
    "message": "Menú contextual"
  },
  "DefaultPolicies": {
    "message": "Políticas predeterminadas"
  },
  "Description": {
    "message": "Protección adicional para su Firefox: NoScript permite JavaScript, Flash (y otros plugins) sólo para los dominios de confianza que usted elija (por ejemplo, el sitio web de su banco). Este enfoque de bloqueo preventivo basado en una lista blanca evita la explotación de vulnerabilidades de seguridad (conocidas e incluso desconocidas) sin pérdida de funcionalidad… Los expertos estarán de acuerdo: Firefox es realmente más seguro con NoScript :-)"
  },
  "Embeddings": {
    "message": "Embedded Objects"
  },
  "Exceptions": {
    "message": "Excepciones…"
  },
  "Export": {
    "message": "Exportar"
  },
  "Export.accesskey": {
    "message": "E"
  },
  "FixLinks": {
    "message": "Intentar corregir enlaces JavaScript"
  },
  "Forbid": {
    "message": "Prohibir"
  },
  "Forbid.accesskey": {
    "message": "h"
  },
  "ForbidBookmarklets": {
    "message": "Prohibir marcadores JavaScript"
  },
  "ForbidFlash": {
    "message": "Prohibir Adobe® Flash®"
  },
  "ForbidFonts": {
    "message": "Prohibir @font-face"
  },
  "ForbidFrames": {
    "message": "Prohibir <FRAME>"
  },
  "ForbidIFrames": {
    "message": "Prohibir <IFRAME>"
  },
  "ForbidJava": {
    "message": "Prohibir Java™"
  },
  "ForbidMedia": {
    "message": "Prohibir <AUDIO> / <VIDEO>"
  },
  "ForbidMetaRefresh": {
    "message": "Prohibir META redireccionamientos dentro de elementos <NOSCRIPT>"
  },
  "ForbidMetaRefresh.accesskey": {
    "message": "N"
  },
  "ForbidPing": {
    "message": "Prohibir <A PING…>"
  },
  "ForbidPlugins": {
    "message": "Prohibir otros plugins"
  },
  "ForbidSilverlight": {
    "message": "Prohibir Microsoft® Silverlight™"
  },
  "ForbidWebGL": {
    "message": "Prohibir WebGL"
  },
  "ForbidXSLT": {
    "message": "Prohibir XSLT"
  },
  "FrameOptErr.desc": {
    "message": "To protect your security, the publisher of this content does not allow it to be displayed in a frame."
  },
  "FrameOptErr.link": {
    "message": "Click here to open this content in a new window"
  },
  "FrameOptErr.title": {
    "message": "This content cannot be displayed in a frame"
  },
  "FullAddr": {
    "message": "Direcciones completas (http://www.noscript.net)"
  },
  "FullDom": {
    "message": "Dominios completos (www.noscript.net)"
  },
  "General": {
    "message": "General"
  },
  "GloballyEnabled": {
    "message": "Scripts permitidos globalmente (peligroso)"
  },
  "Https": {
    "message": "HTTPS"
  },
  "Https.always": {
    "message": "Always"
  },
  "Https.behavior": {
    "message": "Behavior"
  },
  "Https.cookies": {
    "message": "Cookies"
  },
  "Https.description": {
    "message": "Forbid active web content unless it comes from a secure (HTTPS) connection:"
  },
  "Https.never": {
    "message": "Never"
  },
  "Https.proxy": {
    "message": "When using a proxy (recommended with Tor)"
  },
  "HttpsFaq": {
    "message": "HTTPS FAQ…"
  },
  "HttpsFaq.accesskey": {
    "message": "Q"
  },
  "HttpsForced": {
    "message": "Force the following sites to use secure (HTTPS) connections:"
  },
  "HttpsForcedExceptions": {
    "message": "Never force secure (HTTPS) connections for the following sites:"
  },
  "Import": {
    "message": "Importar"
  },
  "Import.accesskey": {
    "message": "I"
  },
  "KeepLocked": {
    "message": "Keep this element locked (recommended)"
  },
  "MatchSample": {
    "message": "Ejemplo de patrones coincidentes:"
  },
  "Next": {
    "message": "Next"
  },
  "NoUntrustedPlaceholder": {
    "message": "No reservar lugar para objetos procedentes de sitios marcados como no fiables"
  },
  "Notifications": {
    "message": "Notificaciones"
  },
  "Notify": {
    "message": "Mostrar mensaje referente a scripts bloqueados"
  },
  "Notify.bottom": {
    "message": "Colocar el mensaje en la parte inferior"
  },
  "NselForce": {
    "message": "Mostrar el elemento <NOSCRIPT> que sigue a un <SCRIPT> bloqueado"
  },
  "NselNever": {
    "message": "Ocultar los elementos <NOSCRIPT>"
  },
  "OptBlockCssScanners": {
    "message": "Bloquear scanners basados en CSS"
  },
  "OptFilterXGet": {
    "message": "Depurar peticiones cross-site sospechosas"
  },
  "OptFilterXPost": {
    "message": "Convertir peticiones POST cross-site en peticiones GET sin datos"
  },
  "Options": {
    "message": "Opciones…"
  },
  "Options.accesskey": {
    "message": "O"
  },
  "OptionsLong": {
    "message": "Opciones de NoScript"
  },
  "OptionsWidth": {
    "message": "40em"
  },
  "Permissions": {
    "message": "Permisos"
  },
  "PermissionsText": {
    "message": "Puede especificar a cuáles sitios web le permitirá ejecutar scripts. Escriba la dirección o el dominio (por ejemplo, \"http://www.sitio.com\" o \"sitio.com\") del sitio y luego haga clic en Permitir."
  },
  "Plugins": {
    "message": "Plugins"
  },
  "Policies": {
    "message": "Políticas"
  },
  "Prev": {
    "message": "Previuous"
  },
  "Refresh": {
    "message": "Actualizar"
  },
  "ReloadWarn": {
    "message": "Estas opciones tendrán efecto en páginas nuevas o (manualmente) recargadas"
  },
  "RemoveSelected": {
    "message": "Quitar los sitios seleccionados"
  },
  "Reset": {
    "message": "Restablecer"
  },
  "Reset.accesskey": {
    "message": "R"
  },
  "ResetDef": {
    "message": "Restablecer a predeterminados"
  },
  "ResetDef.accesskey": {
    "message": "d"
  },
  "RevokeTemp": {
    "message": "Revocar los permisos temporales"
  },
  "RevokeTemp.accesskey": {
    "message": "t"
  },
  "SecureCookies": {
    "message": "Enable Automatic Secure Cookies Management"
  },
  "SecureCookiesExceptions": {
    "message": "Ignore unsafe cookies set over HTTPS by the following sites:"
  },
  "SecureCookiesForced": {
    "message": "Force encryption for all the cookies set over HTTPS by the following sites:"
  },
  "SecurityManager": {
    "message": "Administrador de seguridad"
  },
  "Show": {
    "message": "Mostrar…"
  },
  "ShowConsole": {
    "message": "Mostrar Consola…"
  },
  "ShowConsole.accesskey": {
    "message": "M"
  },
  "ShowPlaceholder": {
    "message": "Mostrar icono de objeto bloqueado"
  },
  "SiteManager": {
    "message": "Administrador de sitios"
  },
  "SitePolicies": {
    "message": "Políticas específicas por sitio"
  },
  "StatusIcon": {
    "message": "Icono en la barra de estado"
  },
  "StatusLabel": {
    "message": "Etiqueta en la barra de estado"
  },
  "TempAllowPage": {
    "message": "Permitir temporalmente toda esta página"
  },
  "TempAllowPage.accesskey": {
    "message": "P"
  },
  "TempCmd": {
    "message": "Permitir temporalmente […]"
  },
  "TempToPerm": {
    "message": "Hacer permanentes los permisos de la página"
  },
  "TempToPerm.accesskey": {
    "message": "m"
  },
  "ToolbarToggle": {
    "message": "Clic en botón NoScript de barra de navegación alterna permisos para actual máximo nivel del sitio"
  },
  "TruncateTitle": {
    "message": "Truncar títulos de documentos"
  },
  "Trust": {
    "message": "Marcar como Fiable"
  },
  "Trust.accesskey": {
    "message": "F"
  },
  "Trusted": {
    "message": "Fiable"
  },
  "TrustedPagesAdj": {
    "message": "trusted"
  },
  "Unknown": {
    "message": "Desconocida"
  },
  "UnsafeReload": {
    "message": "Recargar sin protección"
  },
  "UnsafeReload.accesskey": {
    "message": "c"
  },
  "Untrust": {
    "message": "Marcar como No fiable"
  },
  "Untrust.accesskey": {
    "message": "N"
  },
  "Untrusted": {
    "message": "No fiable"
  },
  "UntrustedPagesAdj": {
    "message": "untrusted"
  },
  "WebAddress": {
    "message": "Dirección del sitio web:"
  },
  "Whitelist": {
    "message": "Lista blanca"
  },
  "Xss": {
    "message": "XSS"
  },
  "Xss.accesskey": {
    "message": "X"
  },
  "XssExceptions": {
    "message": "Excepciones a la protección anti-XSS"
  },
  "XssExceptions.description": {
    "message": "Los destinos coincidentes con estas expresiones regulares NO estarán protegidos contra XSS."
  },
  "XssFaq": {
    "message": "Preguntas frecuentes sobre XSS…"
  },
  "XssFaq.accesskey": {
    "message": "P"
  },
  "about": {
    "message": "Acerca de $1"
  },
  "allowGlobal": {
    "message": "Permitir scripts globalmente (peligroso)"
  },
  "allowLocal": {
    "message": "Permitir $1"
  },
  "allowTemp": {
    "message": "Permitir temporalmente $1"
  },
  "allowed.glb": {
    "message": "¡Peligro! Scripts permitidos globalmente"
  },
  "allowed.no": {
    "message": "Scripts actualmente prohibidos"
  },
  "allowed.prt": {
    "message": "Scripts parcialmente permitidos"
  },
  "allowed.yes": {
    "message": "Scripts actualmente permitidos"
  },
  "alwaysAsk": {
    "message": "Pedir confirmación siempre"
  },
  "audio.samples": {
    "message": "Muestras de sonido"
  },
  "bookmarkSync.message": {
    "message": "This bookmark is NOT meant to be opened, but to be synchronized using a service such as Weave or the XMarks extension."
  },
  "bookmarkSync.title": {
    "message": "NoScript Configuration Bookmark"
  },
  "changelog": {
    "message": "Registro de cambios"
  },
  "changelog.tip": {
    "message": "Mostrar el registro de cambios"
  },
  "confirm": {
    "message": "¿Está seguro?"
  },
  "distrust": {
    "message": "Marcar $1 como no fiable"
  },
  "extensionContributors": {
    "message": "Colaboradores:"
  },
  "extensionContributors.tip": {
    "message": "Personas a las que se debe agradecer por esta extensión"
  },
  "extensionCreator.tip": {
    "message": "Visitar la página principal del autor"
  },
  "extensionCreatorLabel": {
    "message": "Autor:"
  },
  "extensionHomepage.tip": {
    "message": "Visitar la página principal de la extensión"
  },
  "extensions.{73a6fe31-595d-460b-a920-fcc0f8843232}.description": {
    "message": "Protección adicional para su Firefox: NoScript permite JavaScript, Java (y otros plugins) sólo para los dominios de confianza que usted elija (por ejemplo, el sitio web de su banco). Este enfoque de bloqueo preventivo basado en una lista blanca evita la explotación de vulnerabilidades de seguridad (conocidas e incluso desconocidas) sin pérdida de funcionalidad… Los expertos estarán de acuerdo: Firefox es realmente más seguro con NoScript :-)"
  },
  "forbidGlobal": {
    "message": "Prohibir scripts globalmente (recomendado)"
  },
  "forbidLocal": {
    "message": "Prohibir $1"
  },
  "global.warning.text": {
    "message": "Los scripts serán permitidos globalmente (para todos los sitios).\nEsta es una acción potencialmente peligrosa.\n¿Realmente desea continuar?"
  },
  "global.warning.title": {
    "message": "¡Advertencia!"
  },
  "informaction.tip": {
    "message": "Visitar la página principal de InformAction"
  },
  "license": {
    "message": "Licencia"
  },
  "license.tip": {
    "message": "Leer la licencia de usuario final"
  },
  "logo.tip": {
    "message": "Visitar la página principal de la extensión"
  },
  "metaRefresh.notify": {
    "message": "NoScript bloqueó una <META> redirección dentro de un elemento <NOSCRIPT>: $1 en $2 segundos."
  },
  "metaRefresh.notify.follow": {
    "message": "Seguir redirección"
  },
  "metaRefresh.notify.follow.accessKey": {
    "message": "S"
  },
  "notify.options": {
    "message": "Opciones"
  },
  "notify.options.accessKey": {
    "message": "O"
  },
  "notifyHide": {
    "message": "Ocultar después de $1 segundos"
  },
  "reset.title": {
    "message": "Restablecer NoScript"
  },
  "reset.warning": {
    "message": "TODAS las preferencias y permisos de NoScript se restablecerán de inmediato a sus valores predeterminados.\nEsta acción no podrá deshacerse.\n¿Desea continuar?"
  },
  "sponsor.tip": {
    "message": "Visitar la página principal del patrocinador"
  },
  "trust": {
    "message": "Fiable $1"
  },
  "unsafeReload.warning": {
    "message": "Recargando DE MODO INSEGURO una sospechosa\n\n$1 [$2]\n\n DESDE [$3]\n\n¡NoScript NO le protegerá de esta petición!\n"
  },
  "untrustedOrigin": {
    "message": "un origen no fiable"
  },
  "version": {
    "message": "Versión $1"
  },
  "xss.notify.generic": {
    "message": "NoScript ha filtrado un potencial intento de cross-site scripting (XSS) desde $1. Los detalles técnicos puede verlos en la Consola."
  },
  "xss.notify.showConsole": {
    "message": "Mostrar Consola…"
  },
  "xss.notify.showConsole.accessKey": {
    "message": "M"
  },
  "xss.reason.filterXGet": {
    "message": "Depurada petición sospechosa. URL original: [$1] solicitada desde: [$2]. URL depurada: [$3]."
  },
  "xss.reason.filterXGetRef": {
    "message": "Depurada petición sospechosa de referencia. URL [$1] solicitada desde [$2]. Referencia depurada: [$3]."
  },
  "xss.reason.filterXPost": {
    "message": "Depurada carga sospechosa a [$1] desde [$2]: transformada en una petición GET de sólo descarga."
  }
}