{
  "ABE": {
    "message": "ABE"
  },
  "ABE.accesskey": {
    "message": "A"
  },
  "ABE.chooseEditor": {
    "message": "Scegliere un editor di testo per modificare le regole di ABE"
  },
  "ABE.disable.accesskey": {
    "message": "D"
  },
  "ABE.disable.label": {
    "message": "Disabilita"
  },
  "ABE.edit.accesskey": {
    "message": "M"
  },
  "ABE.edit.label": {
    "message": "Modifica…"
  },
  "ABE.enable.accesskey": {
    "message": "A"
  },
  "ABE.enable.label": {
    "message": "Abilita"
  },
  "ABE.enabled.label": {
    "message": "Abilita ABE (Application Boundaries Enforcer)"
  },
  "ABE.notify": {
    "message": "Richiesta $1 filtrata da ABE: <$2> $3"
  },
  "ABE.refresh.accesskey": {
    "message": "R"
  },
  "ABE.refresh.label": {
    "message": "Aggiorna"
  },
  "ABE.rulesets.label": {
    "message": "Gruppi di regole:"
  },
  "ABE.siteEnabled.label": {
    "message": "Permetti ai siti web di configurare le proprie regole"
  },
  "ABE.syntaxError": {
    "message": "Errore di sintassi nelle regole ABE!"
  },
  "ABE.wanIpAsLocal": {
    "message": "WAN IP ($1) ∈ LOCAL "
  },
  "Add": {
    "message": "Aggiungi"
  },
  "Add.accesskey": {
    "message": "A"
  },
  "AdditionalPermissions": {
    "message": "Permessi aggiuntivi per i siti fidati"
  },
  "AdditionalRestrictions": {
    "message": "Restrizioni aggiuntive per i siti non fidati"
  },
  "Advanced": {
    "message": "Avanzate"
  },
  "Allow": {
    "message": "Permetti"
  },
  "Allow.accesskey": {
    "message": "P"
  },
  "AllowBookmarks": {
    "message": "Permetti tutti i siti presenti nei segnalibri"
  },
  "AllowClipboard": {
    "message": "Permetti copia e incolla di testo formattato da altre applicazioni"
  },
  "AllowLocalLinks": {
    "message": "Permetti collegamenti locali"
  },
  "AllowPage": {
    "message": "Permetti tutta la pagina"
  },
  "AllowPage.accesskey": {
    "message": "a"
  },
  "AllowPing": {
    "message": "Permetti il ping dai collegamenti"
  },
  "AllowViaBookmarks": {
    "message": "Permetti i siti aperti attraverso i segnalibri"
  },
  "AlwaysBlockUntrustedContent": {
    "message": "Blocca tutti gli oggetti provenienti da siti segnalati come non fidati"
  },
  "Appearance": {
    "message": "Aspetto"
  },
  "AutoAllowTopLevel": {
    "message": "Permetti temporaneamente il sito principale in automatico"
  },
  "AutoReload": {
    "message": "Ricarica automaticamente la pagina quando i permessi cambiano"
  },
  "AutoReload.currentTab": {
    "message": "Ricarica solo la scheda corrente"
  },
  "BaseDom": {
    "message": "Dominii base (di secondo livello)"
  },
  "BlockedObjects": {
    "message": "Oggetti bloccati"
  },
  "BookmarkSync": {
    "message": "Copia la configurazione di NoScript in un segnalibro sincronizzabile"
  },
  "CascadePermissions": {
    "message": "Propaga i permessi del documento principale a tutti i sottodocumenti e agli script esterni"
  },
  "ClearClickDescription": {
    "message": "NoScript ha intercettato unundefinedinterazione del mouse o della tastiera con un elemento parzialmente nascosto. Cliccare sullundefinedimmagine sotto per confrontare la versione ostruita con quella svelata."
  },
  "ClearClickHeader": {
    "message": "Possibile tentativo di \"clickjacking\" o camuffamento"
  },
  "ClearClickOpt": {
    "message": "Abilita la protezione ClearClick sulle pagine…"
  },
  "ClearClickReport": {
    "message": "Report"
  },
  "ClearClickReport.accesskey": {
    "message": "R"
  },
  "ClearClickReportId": {
    "message": "Report ID:"
  },
  "ClearClickTitle": {
    "message": "Avviso di ClearClick"
  },
  "Close": {
    "message": "Chiudi"
  },
  "CollapseBlockedObjects": {
    "message": "Comprimi lo spazio occupato dagli oggetti bloccati"
  },
  "ConfirmUnblock": {
    "message": "Chiedi conferma prima di sbloccare temporaneamente un oggetto"
  },
  "ContentBlocker": {
    "message": "Applica queste restrizioni anche ai siti fidati"
  },
  "CtxMenu": {
    "message": "Menù contestuale"
  },
  "Custom": {
    "message": "Personalizzato"
  },
  "DefaultPolicies": {
    "message": "Politiche predefinite"
  },
  "Description": {
    "message": "Protezione aggiuntiva per Firefox: NoScript consente lundefinedesecuzione di JavaScript, di Flash (e, opzionalmente, degli altri plugin) solo per domini fidati di tua scelta (es. la tua banca online). Questo blocco preventivo basato su whitelist impedisce lo sfruttamento di vulnerabiltà della sicurezza (sia note che  addirittura ancora sconosciute!) li esperti confermeranno: Firefox è davvero più sicuro con NoScript :-)"
  },
  "Donate": {
    "message": "Donazione"
  },
  "Donate.accesskey": {
    "message": "o"
  },
  "Embeddings": {
    "message": "Oggetti incorporati"
  },
  "Exceptions": {
    "message": "Eccezioni…"
  },
  "Export": {
    "message": "Esporta"
  },
  "Export.accesskey": {
    "message": "E"
  },
  "FixLinks": {
    "message": "Tenta di correggere i link JavaScript"
  },
  "Forbid": {
    "message": "Vieta"
  },
  "Forbid.accesskey": {
    "message": "V"
  },
  "ForbidBookmarklets": {
    "message": "Vieta i bookmarklet"
  },
  "ForbidFlash": {
    "message": "Vieta Adobe® Flash®"
  },
  "ForbidFonts": {
    "message": "Vieta @font-face"
  },
  "ForbidFrames": {
    "message": "Vieta <FRAME>"
  },
  "ForbidIFrames": {
    "message": "Vieta <IFRAME>"
  },
  "ForbidJava": {
    "message": "Vieta Java™"
  },
  "ForbidMedia": {
    "message": "Vieta <AUDIO> / <VIDEO>"
  },
  "ForbidMetaRefresh": {
    "message": "Blocca i reindirizzamenti META dallundefinedinterno di elementi <NOSCRIPT>"
  },
  "ForbidMetaRefresh.accesskey": {
    "message": "R"
  },
  "ForbidPing": {
    "message": "Vieta il ping dai collegamenti"
  },
  "ForbidPlugins": {
    "message": "Vieta altri plugin"
  },
  "ForbidSilverlight": {
    "message": "Vieta Microsoft® Silverlight™"
  },
  "ForbidWebGL": {
    "message": "Vieta WebGL"
  },
  "ForbidXSLT": {
    "message": "Vieta XSLT"
  },
  "FrameOptErr.desc": {
    "message": "Per proteggere la vostra sicurezza, l'autore di questo contenuto non permette che esso sia caricato in un frame."
  },
  "FrameOptErr.link": {
    "message": "Cliccare qui per aprire questo contenuto in una nuova finestra."
  },
  "FrameOptErr.title": {
    "message": "Questo contenuto non può essere caricato in un frame"
  },
  "FullAddr": {
    "message": "Indirizzi completi"
  },
  "FullDom": {
    "message": "Dominii completi"
  },
  "General": {
    "message": "Generale"
  },
  "GlobalHttpsWhitelist": {
    "message": "Permetti automaticamente gli script HTTPS inclusi in documenti HTTPS"
  },
  "GloballyEnabled": {
    "message": "Esecuzione script abilitati globalmente (pericoloso)"
  },
  "Https": {
    "message": "HTTPS"
  },
  "Https.always": {
    "message": "Sempre"
  },
  "Https.behavior": {
    "message": "Comportamento"
  },
  "Https.cookies": {
    "message": "Cookie"
  },
  "Https.description": {
    "message": "Proibisci i contenuti attivi dal web non serviti da HTTPS"
  },
  "Https.never": {
    "message": "Mai"
  },
  "Https.proxy": {
    "message": "Quando uso un proxy (raccomandato con Tor)"
  },
  "HttpsFaq": {
    "message": "FAQ su HTTPS…"
  },
  "HttpsFaq.accesskey": {
    "message": "Q"
  },
  "HttpsForced": {
    "message": "Costringi i seguenti siti a usare connessioni sicure (HTTPS):"
  },
  "HttpsForcedExceptions": {
    "message": "Non forzare mai connessioni sicure (HTTPS) per i seguenti siti:"
  },
  "Import": {
    "message": "Importa"
  },
  "Import.accesskey": {
    "message": "I"
  },
  "KeepLocked": {
    "message": "Mantieni bloccato questo elemento (consigliabile)"
  },
  "MatchSample": {
    "message": "Esempio di corrispondenza:"
  },
  "Next": {
    "message": "Successivo"
  },
  "NoUntrustedPlaceholder": {
    "message": "Non mostrare icona sostitutiva per elementi segnalati come non fidati"
  },
  "Notifications": {
    "message": "Notifiche"
  },
  "Notify": {
    "message": "Mostra messaggio sul blocco degli script"
  },
  "Notify.bottom": {
    "message": "Posiziona il messaggio in basso"
  },
  "NotifyMeta": {
    "message": "Mostra messaggio quando un reindirizzamento META è bloccato"
  },
  "NotifyMeta.accesskey": {
    "message": "R"
  },
  "NselForce": {
    "message": "Mostra lundefinedelemento <NOSCRIPT> che segue un elemento <SCRIPT> bloccato"
  },
  "NselNever": {
    "message": "Nascondi gli elementi <NOSCRIPT>"
  },
  "OptBlockCssScanners": {
    "message": "Blocca gli scanner basati su CSS"
  },
  "OptFilterXGet": {
    "message": "Filtra le richieste sospette di XSS provenienti da siti non fidati"
  },
  "OptFilterXPost": {
    "message": "Neutralizza le richieste POST (upload) sospette di XSS provenienti da siti non fidati"
  },
  "Options": {
    "message": "Opzioni…"
  },
  "Options.accesskey": {
    "message": "O"
  },
  "OptionsLong": {
    "message": "Opzioni NoScript"
  },
  "OptionsWidth": {
    "message": "40em"
  },
  "PermanentInPrivate": {
    "message": "Comandi \"Permetti\" permanenti nelle finestre private"
  },
  "Permissions": {
    "message": "Permessi"
  },
  "PermissionsText": {
    "message": "Qui si possono indicare i siti per i quali lundefinedesecuzione degli script è consentita. Digitare lundefinedindirizzo o il dominio (es. \"http://www.sito.com\" oppure \"sito.com\")  e fare clic su Permetti."
  },
  "Plugins": {
    "message": "Plugin"
  },
  "Policies": {
    "message": "Politiche"
  },
  "Preset": {
    "message": "Livello di sicurezza"
  },
  "Preset.high": {
    "message": "Fortezza (Protezione completa)"
  },
  "Preset.low": {
    "message": "Spensierato (Blacklist + Sicurezza Web)"
  },
  "Preset.medium": {
    "message": "Classico (Whitelist + Sicurezza Web)"
  },
  "Preset.off": {
    "message": "Nessuno (stai scherzando?!)"
  },
  "Prev": {
    "message": "Precedente"
  },
  "RecentBlocked": {
    "message": "Siti bloccati di recente"
  },
  "Refresh": {
    "message": "Aggiorna"
  },
  "ReloadWarn": {
    "message": "Queste opzioni avranno effetto nelle nuove pagine e in quelle ricaricate (manualmente)"
  },
  "RemoveSelected": {
    "message": "Rimuovi i siti selezionati"
  },
  "Reset": {
    "message": "Ripristina"
  },
  "Reset.accesskey": {
    "message": "R"
  },
  "ResetDef": {
    "message": "Ripristina i valori originali"
  },
  "ResetDef.accesskey": {
    "message": "R"
  },
  "RestrictSubdocScripting": {
    "message": "Blocca gli script dei sottodocumenti se il documento principale non è nella whitelist"
  },
  "RevokeTemp": {
    "message": "Revoca i permessi temporanei"
  },
  "RevokeTemp.accesskey": {
    "message": "t"
  },
  "SecureCookies": {
    "message": "Abilita la gestione automatica dei cookie sicuri"
  },
  "SecureCookiesExceptions": {
    "message": "Ignora i cookie non sicuri creati in HTTPS dai seguenti siti:"
  },
  "SecureCookiesForced": {
    "message": "Forza connessioni sicure per tutti i cookie creati in HTTPS dai seguenti siti:"
  },
  "SecurityManager": {
    "message": "Gestione Sicurezza"
  },
  "Show": {
    "message": "Mostra…"
  },
  "ShowConsole": {
    "message": "Mostra Console…"
  },
  "ShowConsole.accesskey": {
    "message": "C"
  },
  "ShowPlaceholder": {
    "message": "Mostra icona sostitutiva"
  },
  "ShowReleaseNotes": {
    "message": "Mostra le informazioni sulla versione dopo ogni aggiornamento"
  },
  "SiteManager": {
    "message": "Gestione Siti"
  },
  "SitePolicies": {
    "message": "Politiche specifiche per i siti"
  },
  "StatusIcon": {
    "message": "Icona sulla barra di stato"
  },
  "StatusLabel": {
    "message": "Etichetta sulla barra di stato"
  },
  "TempAllowPage": {
    "message": "Permetti temporaneamente tutta la pagina"
  },
  "TempAllowPage.accesskey": {
    "message": "P"
  },
  "TempCmd": {
    "message": "Permetti temporaneamente […]"
  },
  "TempToPerm": {
    "message": "Rendi permanenti i permessi della pagina"
  },
  "TempToPerm.accesskey": {
    "message": "m"
  },
  "ToolbarToggle": {
    "message": "Il clic sinistro sul pulsante della barra inverte i permessi per il sito principale"
  },
  "TruncateTitle": {
    "message": "Tronca i titoli dei documenti"
  },
  "Trust": {
    "message": "Considera fidato"
  },
  "Trust.accesskey": {
    "message": "f"
  },
  "Trusted": {
    "message": "Fidato"
  },
  "TrustedPagesAdj": {
    "message": "fidate"
  },
  "Uninstall": {
    "message": "Disinstalla"
  },
  "Unknown": {
    "message": "Sconosciuto"
  },
  "UnsafeReload": {
    "message": "Ricarica senza protezione"
  },
  "UnsafeReload.accesskey": {
    "message": "R"
  },
  "Untrust": {
    "message": "Considera non fidato"
  },
  "Untrust.accesskey": {
    "message": "n"
  },
  "Untrusted": {
    "message": "Non fidato"
  },
  "UntrustedPagesAdj": {
    "message": "non fidate"
  },
  "WebAddress": {
    "message": "Indirizzo del sito:"
  },
  "Whitelist": {
    "message": "Lista fidata"
  },
  "Xss": {
    "message": "XSS"
  },
  "Xss.accesskey": {
    "message": "X"
  },
  "XssExceptions": {
    "message": "Eccezioni alla protezione XSS"
  },
  "XssExceptions.description": {
    "message": "Le destinazioni che corrispondono a queste espressioni regolari NON riceveranno protezione XSS."
  },
  "XssFaq": {
    "message": "FAQ sul XSS…"
  },
  "XssFaq.accesskey": {
    "message": "Q"
  },
  "about": {
    "message": "Informazioni su $1"
  },
  "allowFrom": {
    "message": "Permetti tutto da $1"
  },
  "allowGlobal": {
    "message": "Permetti gli script globalmente (pericoloso)"
  },
  "allowLocal": {
    "message": "Permetti $1"
  },
  "allowTemp": {
    "message": "Permetti $1 temporaneamente"
  },
  "allowTempFrom": {
    "message": "Permetti tutto da $1 temporaneamente"
  },
  "allowed.glb": {
    "message": "Pericolo! Script abilitati globalmente"
  },
  "allowed.no": {
    "message": "Esecuzione script attualmente vietata"
  },
  "allowed.prt": {
    "message": "Esecuzione script parzialmente permessa"
  },
  "allowed.yes": {
    "message": "Esecuzione script attualmente permessa"
  },
  "alwaysAsk": {
    "message": "Chiedi sempre conferma"
  },
  "audio.samples": {
    "message": "Campioni audio"
  },
  "bookmarkSync.confirm": {
    "message": "NoScript ha trovato un segnalibro di configurazione apparentemente salvato in data\n$1.\nSi desidera davvero sovrascrivere la configurazione locale di NoScript con il contenuto di questo segnalibro?"
  },
  "bookmarkSync.message": {
    "message": "Questo segnalibro non è pensato per essere aperto direttamente, ma per essere sincronizzato attraverso un servizio di sincronizzazione come Weave o l'estensione XMarks."
  },
  "bookmarkSync.title": {
    "message": "Configurazione di NoScript"
  },
  "changelog": {
    "message": "Storia versioni"
  },
  "changelog.tip": {
    "message": "Esamina la storia delle versioni"
  },
  "confirm": {
    "message": "Sei sicuro?"
  },
  "disable": {
    "message": "Disabilita $1"
  },
  "disable.accessKey": {
    "message": "D"
  },
  "distrust": {
    "message": "Non fidarti di $1"
  },
  "extensionContributors": {
    "message": "Collaboratori:"
  },
  "extensionContributors.tip": {
    "message": "Chi bisogna ringraziare per questa estensione"
  },
  "extensionCreator.tip": {
    "message": "Visita il sito web dell'autore"
  },
  "extensionCreatorLabel": {
    "message": "Autore:"
  },
  "extensionHomepage.tip": {
    "message": "Visita il sito web dell'estensione"
  },
  "extensions.{73a6fe31-595d-460b-a920-fcc0f8843232}.description": {
    "message": "Protezione aggiuntiva per Firefox: NoScript consente l'esecuzione di JavaScript, di Java (e, opzionalmente, degli altri plugin) solo per domini fidati di tua scelta (es. la tua banca online). Questo blocco preventivo basato su whitelist impedisce lo sfruttamento di vulnerabiltà della sicurezza (sia note che  addirittura ancora sconosciute!) senza perdita di funzionalità... Gli esperti concordano: Firefox è davvero più sicuro con NoScript :-)"
  },
  "forbidGlobal": {
    "message": "Disabilita gli script globalmente (consigliato)"
  },
  "forbidLocal": {
    "message": "Vieta $1"
  },
  "global.warning.text": {
    "message": "L'esecuzione degli script sta per essere abilitata globalmente (per tutti i siti).\n Si tratta di un'azione potenzialmente pericolosa.\nSi vuole davvero procedere?"
  },
  "global.warning.title": {
    "message": "Attenzione!"
  },
  "informaction.tip": {
    "message": "Visita il sito web di InformAction"
  },
  "license": {
    "message": "Licenza"
  },
  "license.tip": {
    "message": "Leggi la licenza per l'utente finale"
  },
  "logo.tip": {
    "message": "Visita il sito web dell'estensione"
  },
  "metaRefresh.notify": {
    "message": "Noscript ha bloccato un reindirizzamento <META> contenuto in un elemento <NOSCRIPT>: $1 in $2 secondi"
  },
  "metaRefresh.notify.follow": {
    "message": "Segui il reindirizzamento"
  },
  "metaRefresh.notify.follow.accessKey": {
    "message": "S"
  },
  "notify.options": {
    "message": "Opzioni"
  },
  "notify.options.accessKey": {
    "message": "O"
  },
  "notifyHide": {
    "message": "Nascondi dopo $1 secondi"
  },
  "reset.title": {
    "message": "Ripristino di NoScript"
  },
  "reset.warning": {
    "message": "Tutte le opzioni di NoScript, permessi inclusi, saranno ripristinate immediatamente al loro valore originale.\nQuesta azione non può essere invertita.\nSi vuole davvero continuare?"
  },
  "siteInfo.confirm": {
    "message": "Stai per chiedere informazioni sul sito \"$1\"\neffettuando una richiesta a $2.\nVuoi continuare?"
  },
  "siteInfo.tooltip": {
    "message": "Per informazioni sul sito, clicca col pulsante centrale o premendo \"maiuscole\"..."
  },
  "sponsor.tip": {
    "message": "Visita il sito web dello sponsor"
  },
  "trust": {
    "message": "Considera $1 fidato"
  },
  "unsafeReload.warning": {
    "message": "Sto per ricaricare SENZA FILTRI un\n\n$1 [ $2 ]\n\nDA [ $3 ]\n\nNoScript NON proteggerà questa richiesta!\n"
  },
  "untrustedOrigin": {
    "message": "una origine non fidata"
  },
  "version": {
    "message": "Versione $1"
  },
  "xss.notify.generic": {
    "message": "NoScript ha filtrato un potenziale tentativo di cross-site scripting (XSS) da parte di $1. Vedere la Console per dettagli."
  },
  "xss.notify.showConsole": {
    "message": "Mostra Console…"
  },
  "xss.notify.showConsole.accessKey": {
    "message": "C"
  },
  "xss.reason.filterXGet": {
    "message": "Richiesta sospetta filtrata. URL originale [$1] richiesto da [$2]. URL filtrato: [$3]."
  },
  "xss.reason.filterXGetRef": {
    "message": "Referente sospetto filtrato. URL [$1] richiesto da [$2]. Referente filtrato: [$3]."
  },
  "xss.reason.filterXPost": {
    "message": "Upload sospetto verso [$1] da [$2] bloccato e trasformato in una richiesta GET innocua."
  }
}