{
  "ABE": {
    "message": "ABE"
  },
  "ABE.accesskey": {
    "message": "A"
  },
  "ABE.chooseEditor": {
    "message": "Escolha um editor de texto para os conjuntos de regras ABE"
  },
  "ABE.disable.accesskey": {
    "message": "D"
  },
  "ABE.disable.label": {
    "message": "Desactivar"
  },
  "ABE.edit.accesskey": {
    "message": "E"
  },
  "ABE.edit.label": {
    "message": "Editar..."
  },
  "ABE.enable.accesskey": {
    "message": "c"
  },
  "ABE.enable.label": {
    "message": "Activar"
  },
  "ABE.enabled.label": {
    "message": "Activar ABE(Application Boundaries Enforcer)"
  },
  "ABE.notify": {
    "message": "Pedido $1 filtrado por ABE: <$2> $3"
  },
  "ABE.refresh.accesskey": {
    "message": "z"
  },
  "ABE.refresh.label": {
    "message": "Actualizar"
  },
  "ABE.rulesets.label": {
    "message": "Conjunto de regras:"
  },
  "ABE.siteEnabled.label": {
    "message": "Permitir que os sítios puxem os seus próprios conjuntos de regras"
  },
  "ABE.syntaxError": {
    "message": "Erro de sintaxe no conjunto de regras ABE!"
  },
  "ABE.wanIpAsLocal": {
    "message": "WAN IP ($1) ∈ LOCAL"
  },
  "Add": {
    "message": "Adicionar"
  },
  "Add.accesskey": {
    "message": "A"
  },
  "AdditionalPermissions": {
    "message": "Permissões adicionais para sítios de confiança"
  },
  "AdditionalRestrictions": {
    "message": "Restrições adicionais para sítios sem confiança"
  },
  "Advanced": {
    "message": "Avançado"
  },
  "Allow": {
    "message": "Permitir"
  },
  "Allow.accesskey": {
    "message": "P"
  },
  "AllowBookmarks": {
    "message": "Permitir todos os sítios que se encontrem nos Marcadores"
  },
  "AllowClipboard": {
    "message": "Permitir copiar e colar texto com formatações de texto a partir da área de transferência"
  },
  "AllowLocalLinks": {
    "message": "Permitir ligações locais"
  },
  "AllowPage": {
    "message": "Permitir tudo nesta página"
  },
  "AllowPage.accesskey": {
    "message": "e"
  },
  "AllowPing": {
    "message": "Permitir <A PING...>"
  },
  "AllowViaBookmarks": {
    "message": "Permitir páginas abertas através dos Marcadores"
  },
  "AlwaysBlockUntrustedContent": {
    "message": "Bloquear todos os objectos provenientes de um site marcado como não confiável"
  },
  "Appearance": {
    "message": "Aparência"
  },
  "AutoAllowTopLevel": {
    "message": "Permitir temporariamente todos os sites de alto nível por pré-definição"
  },
  "AutoReload": {
    "message": "Actualizar automaticamente a página actual quando as permissões são alteradas."
  },
  "BaseDom": {
    "message": "Base domínios de 2º nível (noscript.net)"
  },
  "BlockedObjects": {
    "message": "Objectos bloqueados"
  },
  "BookmarkSync": {
    "message": "Configuração de backup do NoScript num marcador para fácil sincronização"
  },
  "ClearClickDescription": {
    "message": "O NoScript interceptou uma interacção do rato ou do teclado com um elemento parcialmene oculto. Clique na imagem acima para mudar entre a versão limpa e a obstruída"
  },
  "ClearClickHeader": {
    "message": "Potencial Clickjacking / Tentativa de mudar UI"
  },
  "ClearClickOpt": {
    "message": "Limpar aviso com clique nas páginas..."
  },
  "ClearClickReport": {
    "message": "Relatório"
  },
  "ClearClickReport.accesskey": {
    "message": "R"
  },
  "ClearClickReportId": {
    "message": "ID do relatório:"
  },
  "ClearClickTitle": {
    "message": "Limpar aviso com clique"
  },
  "Close": {
    "message": "Fechar"
  },
  "CollapseBlockedObjects": {
    "message": "Colapsar objectos bloqueados"
  },
  "ConfirmUnblock": {
    "message": "Pedir confirmação antes de desbloquear temporariamente um objecto"
  },
  "ContentBlocker": {
    "message": "Aplicar estas restrições também nos sítios de confiança"
  },
  "CtxMenu": {
    "message": "Menu de contexto"
  },
  "DefaultPolicies": {
    "message": "Políticas Pré-definidas"
  },
  "Description": {
    "message": "Protecção extra para o seu Firefox: O NoScript permite o uso de JavaScripts, Flash (e outros plugins) somente para os domínios de confiança que você seleccionar (como por exemplo no sítio do seu internet banking). Esse bloqueio é baseado numa lista branca que previne a exploração de vulnerabilidades de segurança (conhecidas e  até mesmo as desconhecidas!) sem perda de desempenho... Os especialistas concordam: o Firefox é realmente mais seguro com o NoScript :-)"
  },
  "Donate": {
    "message": "Doar"
  },
  "Donate.accesskey": {
    "message": "o"
  },
  "Embeddings": {
    "message": "Objectos embebidos"
  },
  "Exceptions": {
    "message": "Excepções..."
  },
  "Export": {
    "message": "Exportar"
  },
  "Export.accesskey": {
    "message": "E"
  },
  "FixLinks": {
    "message": "Tentar corrigir ligações de JavaScript"
  },
  "Forbid": {
    "message": "Não permitir"
  },
  "Forbid.accesskey": {
    "message": "N"
  },
  "ForbidBookmarklets": {
    "message": "Proibir bookmarklets"
  },
  "ForbidFlash": {
    "message": "Proibir Adobe® Flash®"
  },
  "ForbidFonts": {
    "message": "Proibir @font-face"
  },
  "ForbidFrames": {
    "message": "Proibir <FRAME>"
  },
  "ForbidIFrames": {
    "message": "Proibir <IFRAME>"
  },
  "ForbidJava": {
    "message": "Proibir Java™"
  },
  "ForbidMedia": {
    "message": "Proibir <AUDIO> / <VIDEO>"
  },
  "ForbidMetaRefresh": {
    "message": "Proibir redireccionamentos META dentro de elementos <NOSCRIPT>"
  },
  "ForbidMetaRefresh.accesskey": {
    "message": "R"
  },
  "ForbidPing": {
    "message": "Proibir <A PING...>"
  },
  "ForbidPlugins": {
    "message": "Proibir outros plugins"
  },
  "ForbidSilverlight": {
    "message": "Proibir Microsoft® Silverlight™"
  },
  "ForbidWebGL": {
    "message": "Proibir WebGL"
  },
  "ForbidXSLT": {
    "message": "Proibir XSLT"
  },
  "FrameOptErr.desc": {
    "message": "Para o proteger, o editor deste conteúdo não permite que seja apresentado numa frame."
  },
  "FrameOptErr.link": {
    "message": "Clique aqui para abrir este conteúdo numa nova janela"
  },
  "FrameOptErr.title": {
    "message": "Este conteúdo não pode ser apresentado numa frame"
  },
  "FullAddr": {
    "message": "Endereço completo (http://www.noscript.net)"
  },
  "FullDom": {
    "message": "Domínios completos (www.noscript.net)"
  },
  "General": {
    "message": "Geral"
  },
  "GloballyEnabled": {
    "message": "Scripts permitidos na globalidade (perigoso)"
  },
  "Https": {
    "message": "HTTPS"
  },
  "Https.always": {
    "message": "Sempre"
  },
  "Https.behavior": {
    "message": "Comportamento"
  },
  "Https.cookies": {
    "message": "Cookies"
  },
  "Https.description": {
    "message": "Proibir conteúdo web activo a não ser que venha de uma ligação segura (HTTPS):"
  },
  "Https.never": {
    "message": "Nunca"
  },
  "Https.proxy": {
    "message": "Ao usar um proxy (recomendado com Tor)"
  },
  "HttpsFaq": {
    "message": "HTTPS FAQ…"
  },
  "HttpsFaq.accesskey": {
    "message": "Q"
  },
  "HttpsForced": {
    "message": "Forçar o uso de ligações seguras (HTTPS)dos seguintes sítios:"
  },
  "HttpsForcedExceptions": {
    "message": "Nunca forçar o uso de ligações seguras (HTTPS)dos seguintes sítios:"
  },
  "Import": {
    "message": "Importar"
  },
  "Import.accesskey": {
    "message": "I"
  },
  "KeepLocked": {
    "message": "Manter este elemento fechado (recomendado)"
  },
  "MatchSample": {
    "message": "Exemplo ilustrativo da combinação:"
  },
  "Next": {
    "message": "Seguinte"
  },
  "NoUntrustedPlaceholder": {
    "message": "Nenhum placeholder para objectos provenientes de sítios marcados como de confiança"
  },
  "Notifications": {
    "message": "Notificações"
  },
  "Notify": {
    "message": "Mostrar mensagens sobre os scripts bloqueados"
  },
  "Notify.bottom": {
    "message": "Mostrar mensagens na zona inferior"
  },
  "NotifyMeta": {
    "message": "Mostrar mensagem sobre redireccionamentos META bloqueados"
  },
  "NotifyMeta.accesskey": {
    "message": "R"
  },
  "NselForce": {
    "message": "Mostrar o elemento <NOSCRIPT> que seguiu um script bloqueado <SCRIPT>"
  },
  "NselNever": {
    "message": "Ocultar elementos <NOSCRIPT>"
  },
  "OptBlockCssScanners": {
    "message": "Bloquear scanners baseados em CSS"
  },
  "OptFilterXGet": {
    "message": "Desinfectar requerimentos suspeitos via sítio"
  },
  "OptFilterXPost": {
    "message": "Alterar requerimentos perigosos via sítio em requerimentos GET sem dados"
  },
  "Options": {
    "message": "Opções"
  },
  "Options.accesskey": {
    "message": "O"
  },
  "OptionsLong": {
    "message": "Opções do NoScript"
  },
  "OptionsWidth": {
    "message": "40em"
  },
  "Permissions": {
    "message": "Permissões"
  },
  "PermissionsText": {
    "message": "Pode especificar os sítios que podem executar scripts. Escreva o endereço ou o domínio (ex: \"http://www.sitio.com\" ou \"sitio.com\") do sítio que deseja permitir e depois pressione em Permitir."
  },
  "Plugins": {
    "message": "Plugins"
  },
  "Policies": {
    "message": "Políticas"
  },
  "Preset": {
    "message": "Nível de Segurança"
  },
  "Preset.high": {
    "message": "Fortaleza (bloqueio completo)"
  },
  "Preset.low": {
    "message": "Sensível (Lista negra + Segurança Web)"
  },
  "Preset.medium": {
    "message": "Classic (Lista branca + Segurança Web)"
  },
  "Preset.off": {
    "message": "Desligado (tem a certeza?)"
  },
  "Prev": {
    "message": "Anterior"
  },
  "RecentBlocked": {
    "message": "Sítios bloqueados recentemente"
  },
  "Refresh": {
    "message": "Actualizar"
  },
  "ReloadWarn": {
    "message": "Estas opções terão efeito em páginas novas ou (manualmente) actualizadas."
  },
  "RemoveSelected": {
    "message": "Remover sítios seleccionados"
  },
  "Reset": {
    "message": "Restaurar"
  },
  "Reset.accesskey": {
    "message": "R"
  },
  "ResetDef": {
    "message": "Restaurar pré-definições"
  },
  "ResetDef.accesskey": {
    "message": "p"
  },
  "RevokeTemp": {
    "message": "Anular Permissões Temporárias"
  },
  "RevokeTemp.accesskey": {
    "message": "A"
  },
  "SecureCookies": {
    "message": "Activar a gestão automática segura de cookies"
  },
  "SecureCookiesExceptions": {
    "message": "Ignorar cookies não seguros aplicada sobre HTTPS pelos seguintes sítios:"
  },
  "SecureCookiesForced": {
    "message": "Forçar cifra para todos os cookies aplicada sobre HTTPS pelos seguintes sítios:"
  },
  "SecurityManager": {
    "message": "Gestor de Segurança"
  },
  "Show": {
    "message": "Mostrar..."
  },
  "ShowConsole": {
    "message": "Mostrar Consola..."
  },
  "ShowConsole.accesskey": {
    "message": "M"
  },
  "ShowPlaceholder": {
    "message": "Mostrar ícone de substituição"
  },
  "ShowReleaseNotes": {
    "message": "Mostrar as notas de lançamento nas actualizações"
  },
  "SiteManager": {
    "message": "Gestor de Sítios"
  },
  "SitePolicies": {
    "message": "Políticas Especificas do Sítio"
  },
  "StatusIcon": {
    "message": "Ícone da Barra de Estado"
  },
  "StatusLabel": {
    "message": "Informações na barra de estado"
  },
  "TempAllowPage": {
    "message": "Autorizar tudo temporariamente nesta página"
  },
  "TempAllowPage.accesskey": {
    "message": "P"
  },
  "TempCmd": {
    "message": "Permitir temporariamente [...]"
  },
  "TempToPerm": {
    "message": "Tornar as permissões da página permanentes"
  },
  "TempToPerm.accesskey": {
    "message": "n"
  },
  "ToolbarToggle": {
    "message": "Clique esquerdo na barra de ferramentas do NoScript altera as permissões para o sítio principal actual"
  },
  "TruncateTitle": {
    "message": "Quebrar títulos dos documentos"
  },
  "Trust": {
    "message": "Marcar como de confiança"
  },
  "Trust.accesskey": {
    "message": "T"
  },
  "Trusted": {
    "message": "De confiança"
  },
  "TrustedPagesAdj": {
    "message": "de confiança"
  },
  "Uninstall": {
    "message": "Desinstalar"
  },
  "Unknown": {
    "message": "Desconhecido"
  },
  "UnsafeReload": {
    "message": "Recarregamento Inseguro"
  },
  "UnsafeReload.accesskey": {
    "message": "R"
  },
  "Untrust": {
    "message": "Marcar como não sendo de confiança"
  },
  "Untrust.accesskey": {
    "message": "o"
  },
  "Untrusted": {
    "message": "Não é de confiança"
  },
  "UntrustedPagesAdj": {
    "message": "não é de confiança"
  },
  "WebAddress": {
    "message": "Endereço:"
  },
  "Whitelist": {
    "message": "Lista Branca"
  },
  "Xss": {
    "message": "XSS"
  },
  "Xss.accesskey": {
    "message": "X"
  },
  "XssExceptions": {
    "message": "Protecção Anti-XSS através das excepções"
  },
  "XssExceptions.description": {
    "message": "Os destinos que combinarem essas expressões NÃO serão protegidos contra XSS"
  },
  "XssFaq": {
    "message": "Perguntas e respostas do XSS ..."
  },
  "XssFaq.accesskey": {
    "message": "P"
  },
  "about": {
    "message": "Sobre $1"
  },
  "allowFrom": {
    "message": "Permitir tudo de $1"
  },
  "allowGlobal": {
    "message": "Permitir JavaScript Globalmente (perigoso)"
  },
  "allowLocal": {
    "message": "Permitir $1"
  },
  "allowTemp": {
    "message": "Permitir temporariamente $1"
  },
  "allowTempFrom": {
    "message": "Permitir tudo de $1 temporariamente"
  },
  "allowed.glb": {
    "message": "Perigo! Scripts permitidos globalmente"
  },
  "allowed.no": {
    "message": "Scripts proibidos de momento"
  },
  "allowed.prt": {
    "message": "Scripts permitidos parcialmente"
  },
  "allowed.yes": {
    "message": "Scripts permitidos de momento"
  },
  "alwaysAsk": {
    "message": "Pedir sempre confirmação"
  },
  "audio.samples": {
    "message": "Ficheiros Áudio [wav]"
  },
  "bookmarkSync.confirm": {
    "message": "NoScript has found a configuration bookmark seemingly saved on\n$1.\nDo you really want to overwrite your local NoScript configuration with this bookmark\\'s content?"
  },
  "bookmarkSync.message": {
    "message": "Este marcador Não é para ser aberto, mas sim ser sincronizado usando um serviço tipo Weave ou a extensão XMarks."
  },
  "bookmarkSync.title": {
    "message": "Marcador de configuração do NoScript"
  },
  "changelog": {
    "message": "Histórico"
  },
  "changelog.tip": {
    "message": "Mostrar histórico"
  },
  "confirm": {
    "message": "Tem a certeza?"
  },
  "disable": {
    "message": "Desactivar $1"
  },
  "disable.accessKey": {
    "message": "D"
  },
  "distrust": {
    "message": "Marcar $1 como Não Confiável"
  },
  "extensionContributors": {
    "message": "Contribuintes:"
  },
  "extensionContributors.tip": {
    "message": "A quem deve agradecer por esta extensão"
  },
  "extensionCreator.tip": {
    "message": "Visitar a página do autor"
  },
  "extensionCreatorLabel": {
    "message": "Criador:"
  },
  "extensionHomepage.tip": {
    "message": "Visitar a página da extensão"
  },
  "extensions.{73a6fe31-595d-460b-a920-fcc0f8843232}.description": {
    "message": "Protecção extra para o seu Firefox..."
  },
  "forbidGlobal": {
    "message": "Proibir JavaScript Globalmente (recomendado)"
  },
  "forbidLocal": {
    "message": "Proibir $1"
  },
  "global.warning.text": {
    "message": "Os Scripts serão globalmente permitidos (em qualquer sítio).\nEsta é uma acção potencialmente perigosa.\nDeseja mesmo continuar?"
  },
  "global.warning.title": {
    "message": "Aviso!"
  },
  "informaction.tip": {
    "message": "Visitar a página da InformAction"
  },
  "license": {
    "message": "Licença"
  },
  "license.tip": {
    "message": "Ler a licença final do utilizador"
  },
  "logo.tip": {
    "message": "Visitar a página da extensão"
  },
  "metaRefresh.notify": {
    "message": "O NoScript bloqueou um redireccionamento <META> dentro de um elemento do <NOSCRIPT>: $1 em $2 segundos."
  },
  "metaRefresh.notify.follow": {
    "message": "Seguir redireccionamento"
  },
  "metaRefresh.notify.follow.accessKey": {
    "message": "S"
  },
  "notify.options": {
    "message": "Opções"
  },
  "notify.options.accessKey": {
    "message": "O"
  },
  "notifyHide": {
    "message": "Ocultar após $1 segundos"
  },
  "reset.title": {
    "message": "Reiniciar configurações do NoScript"
  },
  "reset.warning": {
    "message": "TODAS as configurações do NoScript e as permissões de sítios serão restauradas imediatamente para os seus valores pré-definidos.\n Esta acção não poderá ser revertida. \nDeseja continuar?"
  },
  "siteInfo.confirm": {
    "message": "Está prestes a pedir informações sobre o sítio \\\"$1\\\"\nao enviar um pedido para $2.\nDeseja continuar?"
  },
  "siteInfo.tooltip": {
    "message": "Clique-central ou Shift+clique para obter informações do sítio..."
  },
  "sponsor.tip": {
    "message": "Visitar a página do patrocinador"
  },
  "trust": {
    "message": "Confiar $1"
  },
  "unsafeReload.warning": {
    "message": "Recarregamento INSEGURO e suspeito\n\n$1 [$2}\n\nDE [$3]\n\nO NoScript NÃO irá proteger este pedido!\n"
  },
  "untrustedOrigin": {
    "message": "uma origem não confiável"
  },
  "version": {
    "message": "Versão $1"
  },
  "xss.notify.generic": {
    "message": "O NoScript filtrou uma tentativa de uso de script via sítio (XSS) vinda de $1. Detalhes técnicos foram gravados na consola."
  },
  "xss.notify.showConsole": {
    "message": "Mostrar consola..."
  },
  "xss.notify.showConsole.accessKey": {
    "message": "s"
  },
  "xss.reason.filterXGet": {
    "message": "Desinfectou um requerimento suspeito. O URL original [$1] requerido por [$2].  URL desinfectada: [$3].)"
  },
  "xss.reason.filterXGetRef": {
    "message": "Desinfectou um requerimento de referência suspeita. A URL [$1] requerida por [$2]. Referência desinfectada: [$3].)"
  },
  "xss.reason.filterXPost": {
    "message": "Carregamento suspeito desinfectado de [$1] para [$2]: transformado em um requerimento do tipo apenas transferência."
  }
}