{
  "ABE": {
    "message": "ABE"
  },
  "ABE.accesskey": {
    "message": "A"
  },
  "ABE.chooseEditor": {
    "message": "Ве молиме изберете уредувач на текст за ABE правилата"
  },
  "ABE.disable.accesskey": {
    "message": "И"
  },
  "ABE.disable.label": {
    "message": "Исклучи"
  },
  "ABE.edit.accesskey": {
    "message": "У"
  },
  "ABE.edit.label": {
    "message": "Уреди..."
  },
  "ABE.enable.accesskey": {
    "message": "к"
  },
  "ABE.enable.label": {
    "message": "Вклучи"
  },
  "ABE.enabled.label": {
    "message": "Вклучи го ABE (Application Boundaries Enforcer)"
  },
  "ABE.notify": {
    "message": "Барањето $1 е филтрирано од ABE: <$2> $3"
  },
  "ABE.refresh.accesskey": {
    "message": "О"
  },
  "ABE.refresh.label": {
    "message": "Освежи"
  },
  "ABE.rulesets.label": {
    "message": "Правила:"
  },
  "ABE.siteEnabled.label": {
    "message": "Дозволи страниците да притискаат нивни сопствени правила"
  },
  "Add": {
    "message": "Додади"
  },
  "Add.accesskey": {
    "message": "Д"
  },
  "AdditionalPermissions": {
    "message": "Додатни овластувања за одобрени страници"
  },
  "AdditionalRestrictions": {
    "message": "Додатни забрани за неодобрени страници"
  },
  "Advanced": {
    "message": "Напредно"
  },
  "Allow": {
    "message": "Дозволи"
  },
  "Allow.accesskey": {
    "message": "Д"
  },
  "AllowBookmarks": {
    "message": "Дозволи ги страниците отворени преку обележувачите"
  },
  "AllowClipboard": {
    "message": "Дозволи вметнување на форматиран текст (на пример ХТМЛ)"
  },
  "AllowLocalLinks": {
    "message": "Дозволи local links"
  },
  "AllowPage": {
    "message": "Дозволи ја целата оваа страница"
  },
  "AllowPage.accesskey": {
    "message": "Д"
  },
  "AllowPing": {
    "message": "Овозможи следење на вашите кликови преку атрибутот „ping“ (<a ping=...>)"
  },
  "AllowViaBookmarks": {
    "message": "Дозволи ги страниците отворени преку обележувачите"
  },
  "AlwaysBlockUntrustedContent": {
    "message": "Блокирај го секој објект кој доаѓа од страница означена како без доверба"
  },
  "Appearance": {
    "message": "Изглед"
  },
  "AutoAllowTopLevel": {
    "message": "Привремено дозволи за сите главни домени"
  },
  "AutoReload": {
    "message": "Автоматско превчитување на страните при промена на дозволата"
  },
  "BaseDom": {
    "message": "Основа на доменот (noscript.net)"
  },
  "BlockedObjects": {
    "message": "Блокирани Објекти"
  },
  "BookmarkSync": {
    "message": "Направи резервна копија на конфигурацијата на NoScript во обележувач за лесна синхронизација"
  },
  "ClearClickDescription": {
    "message": "NoScript пресретна интеракција на глушецот или тастатурата со делумно скриен елемент. Кликни на сликата погоре за промена помеѓу спречената и чистата верзија."
  },
  "ClearClickHeader": {
    "message": "Потенцијален обид за Clickjacking / UI Redressing!"
  },
  "ClearClickOpt": {
    "message": "ClearClick заштита на страниците..."
  },
  "ClearClickReport": {
    "message": "Извештај"
  },
  "ClearClickReport.accesskey": {
    "message": "И"
  },
  "ClearClickReportId": {
    "message": "Ид. на Извештајот:"
  },
  "ClearClickTitle": {
    "message": "ClearClick Предупредување"
  },
  "Close": {
    "message": "Затвори"
  },
  "CollapseBlockedObjects": {
    "message": "Спушти ги блокираните објекти"
  },
  "ConfirmUnblock": {
    "message": "Побарај одобрување пред привремено одблокирање на објектот"
  },
  "ContentBlocker": {
    "message": "Примени ги овие ограничувања исто така и за страниците од доверба"
  },
  "CtxMenu": {
    "message": "Контекстуално мени (при десен клик)"
  },
  "DefaultPolicies": {
    "message": "Основни начела"
  },
  "Description": {
    "message": "Extra protection for your Firefox: NoScript allows JavaScript, Flash (and other plugins) only for trusted domains of your choice (e.g. your home-banking web site). This whitelist based pre-emptive blocking approach prevents exploitation of security vulnerabilities (known and even unknown!) with no loss of functionality... Experts will agree: Firefox is really safer with NoScript :-)"
  },
  "Donate": {
    "message": "Донирај"
  },
  "Donate.accesskey": {
    "message": "о"
  },
  "Embeddings": {
    "message": "Вградени Објекти"
  },
  "Exceptions": {
    "message": "Исклучоци..."
  },
  "Export": {
    "message": "Извези"
  },
  "Export.accesskey": {
    "message": "И"
  },
  "FixLinks": {
    "message": "Обиди се да ги поправиш JavaScript линковите"
  },
  "Forbid": {
    "message": "Забрани"
  },
  "Forbid.accesskey": {
    "message": "З"
  },
  "ForbidBookmarklets": {
    "message": "Оневозможи зачувување на врската"
  },
  "ForbidFlash": {
    "message": "Оневозможи Макромедија Флеш (Macromedia® Flash®)"
  },
  "ForbidFonts": {
    "message": "Оневозможи @font-face"
  },
  "ForbidFrames": {
    "message": "Оневозможи <FRAME>"
  },
  "ForbidIFrames": {
    "message": "Оневозможи <IFRAME>"
  },
  "ForbidJava": {
    "message": "Оневозможи Јава (Java™)"
  },
  "ForbidMedia": {
    "message": "Оневозможи <AUDIO> / <VIDEO>"
  },
  "ForbidMetaRefresh": {
    "message": "Забрани „META“ пренасочувања во <noscript> елементи"
  },
  "ForbidMetaRefresh.accesskey": {
    "message": "З"
  },
  "ForbidPing": {
    "message": "Оневозможи следење на вашите кликови преку атрибутот „ping“ (<a ping=...>)"
  },
  "ForbidPlugins": {
    "message": "Оневозможи ги другите додатоци"
  },
  "ForbidSilverlight": {
    "message": "Оневозможи Microsoft® Silverlight™"
  },
  "ForbidWebGL": {
    "message": "Оневозможи WebGL"
  },
  "ForbidXSLT": {
    "message": "Оневозможи Јава (XSLT)"
  },
  "FrameOptErr.desc": {
    "message": "За да ја заштити вашата сигурност, издавачот на оваа содржина не дозволува да биде прикажана во рамка."
  },
  "FrameOptErr.link": {
    "message": "Кликни овде за да ја отвориш оваа содржина во нов прозорец"
  },
  "FrameOptErr.title": {
    "message": "Оваа содржина не може да биде прикажана во рамка"
  },
  "FullAddr": {
    "message": "Целосни адреси (http://www.noscript.net)"
  },
  "FullDom": {
    "message": "Целосни домени (www.noscript.net)"
  },
  "General": {
    "message": "Општо"
  },
  "GloballyEnabled": {
    "message": "Општо овозможени скрипти (можност за опасност)"
  },
  "Https": {
    "message": "HTTPS"
  },
  "Https.always": {
    "message": "Секогаш"
  },
  "Https.behavior": {
    "message": "Однесување"
  },
  "Https.cookies": {
    "message": "Колачиња"
  },
  "Https.description": {
    "message": "Забрани активна веб содржина освен ако не доаѓа од безбедно (HTTPS) поврзување:"
  },
  "Https.never": {
    "message": "Никогаш"
  },
  "Https.proxy": {
    "message": "Кога се користи прокси(препорачливо со Tor)"
  },
  "HttpsFaq": {
    "message": "HTTPS FAQ…"
  },
  "HttpsFaq.accesskey": {
    "message": "Q"
  },
  "HttpsForced": {
    "message": "Присили ги следните страници да користат безбедни (HTTPS) поврзувања:"
  },
  "HttpsForcedExceptions": {
    "message": "Никогаш не присилувај безбедни (HTTPS) поврзувања за следните страници:"
  },
  "Import": {
    "message": "Увези листа на дозволени адреси"
  },
  "Import.accesskey": {
    "message": "У"
  },
  "KeepLocked": {
    "message": "Задржи го овој елемент заклучен (препорачливо)"
  },
  "MatchSample": {
    "message": "Примерок кој одговара на шемата:"
  },
  "Next": {
    "message": "Следно"
  },
  "NoUntrustedPlaceholder": {
    "message": "No placeholder for objects coming from sites marked as untrusted"
  },
  "Notifications": {
    "message": "Известувања"
  },
  "Notify": {
    "message": "Порака при блокирање на скрипти"
  },
  "Notify.bottom": {
    "message": "Смести ја пораката на дното"
  },
  "NotifyMeta": {
    "message": "Покажи порака за блокираните „META“ пренасочувања"
  },
  "NotifyMeta.accesskey": {
    "message": "П"
  },
  "NselForce": {
    "message": "Покажувај ги <noscript> елементите што се по блокирани <SCRIPT> елементи"
  },
  "NselNever": {
    "message": "Никогаш не покажувај <noscript> елементи"
  },
  "OptBlockCssScanners": {
    "message": "Block CSS-based scanners"
  },
  "OptFilterXGet": {
    "message": "Sanitize cross-site suspicious requests"
  },
  "OptFilterXPost": {
    "message": "Turn cross-site POST requests into data-less GET requests"
  },
  "Options": {
    "message": "Опции..."
  },
  "Options.accesskey": {
    "message": "О"
  },
  "OptionsLong": {
    "message": "NoScript Опции"
  },
  "OptionsWidth": {
    "message": "40em"
  },
  "Permissions": {
    "message": "Дозволи"
  },
  "PermissionsText": {
    "message": "Можете да ги назначите страните, на кои што скриптите ќе бидат дозволени. Напишете ја дозволената адреса (на пример http://www.site.com или site.com) и кликнете „Дозволи“"
  },
  "Plugins": {
    "message": "Plugins"
  },
  "Policies": {
    "message": "Начела"
  },
  "Preset": {
    "message": "Ниво на Безбедност"
  },
  "Preset.off": {
    "message": "Исклучи (дали сте сериозни?!)"
  },
  "Prev": {
    "message": "Претходно"
  },
  "RecentBlocked": {
    "message": "Неодамна блокирани страници"
  },
  "Refresh": {
    "message": "Освежи"
  },
  "ReloadWarn": {
    "message": "Овие подесувања ќе важат при следното вчитување на страниците"
  },
  "RemoveSelected": {
    "message": "Отстрани ги избраните страници од листата на дозволени"
  },
  "Reset": {
    "message": "Врати ги старите вредности"
  },
  "Reset.accesskey": {
    "message": "В"
  },
  "ResetDef": {
    "message": "Врати ги старите вредности"
  },
  "ResetDef.accesskey": {
    "message": "с"
  },
  "RevokeTemp": {
    "message": "Отповикај ги Привремените Дозволи"
  },
  "RevokeTemp.accesskey": {
    "message": "T"
  },
  "SecureCookies": {
    "message": "Овозможи Автоматски Менаџмент на Безбедните Колачиња"
  },
  "SecureCookiesExceptions": {
    "message": "Игнорирај несигурни колачиња поставени од следните страници преку HTTPS:"
  },
  "SecureCookiesForced": {
    "message": "Присили енкрипција за сите колачиња поставени од следните страници преку HTTPS:"
  },
  "SecurityManager": {
    "message": "Безбедносен управител"
  },
  "Show": {
    "message": "Прикажи..."
  },
  "ShowConsole": {
    "message": "Покажи ја Конзолата..."
  },
  "ShowConsole.accesskey": {
    "message": "П"
  },
  "ShowPlaceholder": {
    "message": "Покажи икона на резервираното место"
  },
  "ShowReleaseNotes": {
    "message": "Прикажи ги белешките за изданието при ажурирање"
  },
  "SiteManager": {
    "message": "Организатор на места"
  },
  "SitePolicies": {
    "message": "Посебни начела за местото"
  },
  "StatusIcon": {
    "message": "Икона на статусната лента"
  },
  "StatusLabel": {
    "message": "Информација на статусната лента"
  },
  "TempAllowPage": {
    "message": "Привремено дозволи ја целата оваа страница"
  },
  "TempAllowPage.accesskey": {
    "message": "П"
  },
  "TempCmd": {
    "message": "Привремено дозволи за [...]"
  },
  "TempToPerm": {
    "message": "Направи ги овие дозволи на страницата трајни"
  },
  "TempToPerm.accesskey": {
    "message": "Н"
  },
  "ToolbarToggle": {
    "message": "Со лев клик на копчето „NoScript“ од алатникот се менуваат дозволите за моментно отворената страна (главниот домен)"
  },
  "TruncateTitle": {
    "message": "Скрати ги насловите на документите"
  },
  "Trust": {
    "message": "Обележи како страна од доверба"
  },
  "Trust.accesskey": {
    "message": "д"
  },
  "Trusted": {
    "message": "Со доверба"
  },
  "TrustedPagesAdj": {
    "message": "со доверба"
  },
  "Uninstall": {
    "message": "Одинсталирај"
  },
  "Unknown": {
    "message": "Непознато"
  },
  "UnsafeReload": {
    "message": "Небезбедно Вчитување"
  },
  "UnsafeReload.accesskey": {
    "message": "В"
  },
  "Untrust": {
    "message": "Обележи како страна без доверба"
  },
  "Untrust.accesskey": {
    "message": "б"
  },
  "Untrusted": {
    "message": "Без доверба"
  },
  "UntrustedPagesAdj": {
    "message": "без доверба"
  },
  "WebAddress": {
    "message": "Адреса на дозволената веб страна:"
  },
  "Whitelist": {
    "message": "Бела листа"
  },
  "Xss": {
    "message": "XSS"
  },
  "Xss.accesskey": {
    "message": "X"
  },
  "XssExceptions": {
    "message": "Anti-XSS Protection Exceptions"
  },
  "XssExceptions.description": {
    "message": "Destinations matching these regular expressions will NOT be protected aginst XSS"
  },
  "XssFaq": {
    "message": "XSS FAQ..."
  },
  "XssFaq.accesskey": {
    "message": "Q"
  },
  "about": {
    "message": "За $1"
  },
  "allowFrom": {
    "message": "Дозволи ги сите од $1"
  },
  "allowGlobal": {
    "message": "Овозможи ги скриптите општо (непрепорачливо)"
  },
  "allowLocal": {
    "message": "Дозволи за $1"
  },
  "allowTemp": {
    "message": "Привремено дозволи за $1"
  },
  "allowTempFrom": {
    "message": "Привремено дозволи ги сите од $1"
  },
  "allowed.glb": {
    "message": "Можна опасност! Скриптите се општо дозволени."
  },
  "allowed.no": {
    "message": "Скриптите се засега забранети"
  },
  "allowed.prt": {
    "message": "Скриптите се делумно дозволени"
  },
  "allowed.yes": {
    "message": "Скриптите се засега дозволени"
  },
  "alwaysAsk": {
    "message": "Секогаш прикажувај ја оваа порака"
  },
  "audio.samples": {
    "message": "Звуци"
  },
  "bookmarkSync.confirm": {
    "message": "NoScript пронајде конфигурациски облежувач навидум зачуван на\n$1.\nДали навистина сакате да ја презапишите вашата NoScript конфигурација со содржината на овај обележувач?"
  },
  "bookmarkSync.message": {
    "message": "Овај обележувач не е наменет за отворање, туку за синхронизирање користејќи сервис како Weave или XMarks екстензија."
  },
  "bookmarkSync.title": {
    "message": "NoScript Конфигурациски Обележувач"
  },
  "changelog": {
    "message": "Промени"
  },
  "changelog.tip": {
    "message": "Покажи ги промените"
  },
  "confirm": {
    "message": "Дали сте сигурни?"
  },
  "disable": {
    "message": "Исклучи $1"
  },
  "distrust": {
    "message": "Не му верувај на $1"
  },
  "extensionContributors": {
    "message": "Соработници:"
  },
  "extensionContributors.tip": {
    "message": "Луѓе на кои би сакале да им се заблагодарите за ова проширување."
  },
  "extensionCreator.tip": {
    "message": "Посетете ја интернет страницата на авторот"
  },
  "extensionCreatorLabel": {
    "message": "Автор:"
  },
  "extensionHomepage.tip": {
    "message": "Посетете ја интернет страницата на проширувањето"
  },
  "extensions.{73a6fe31-595d-460b-a920-fcc0f8843232}.description": {
    "message": "Додатна заштита за вашиот прелистувач Firefox:NoScript дозволува JavaScript, Java (и други додатоци) само за домени од доверба по ваш избор (на пр. страницата од вашата банка). Овај пристап базиран на блокирање брз база на бела листа ги спречува искористувањата на сигурносните слабости (познати и непознати!) без загуба на функционалност... Екпертите ќе се согласат: Firefox е навистина посигурен со NoScript :-)"
  },
  "forbidGlobal": {
    "message": "Оневозможи ги скриптите (препорачливо)"
  },
  "forbidLocal": {
    "message": "Забрани за $1"
  },
  "global.warning.text": {
    "message": "Скриптите ќе бидат овозможени општо (за секоја страница).\n Ова подесување ве изложува на познати и непознати опасности.\nАко сакате да продолжите, притиснете „Во ред“."
  },
  "global.warning.title": {
    "message": "Предупредување!"
  },
  "informaction.tip": {
    "message": "Посетете ја интернет страницата на InformAction"
  },
  "license": {
    "message": "Дозвола"
  },
  "license.tip": {
    "message": "Прочитајте ја дозволата за употреба"
  },
  "logo.tip": {
    "message": "Посетете ја интернет страницата на проширувањето"
  },
  "metaRefresh.notify": {
    "message": "„NoScript“ спречи <META> пренасочување сместено во <NOSCRIPT> елемент: $1 за $2 секунди."
  },
  "metaRefresh.notify.follow": {
    "message": "Следи пренасочување"
  },
  "metaRefresh.notify.follow.accessKey": {
    "message": "С"
  },
  "notify.options": {
    "message": "Опции"
  },
  "notify.options.accessKey": {
    "message": "О"
  },
  "notifyHide": {
    "message": "Скриј ја по $1 секунди"
  },
  "reset.title": {
    "message": "Враќање на првобитните поставки на „NoScript“"
  },
  "reset.warning": {
    "message": "СИТЕ подесувања на „NoScript“ ќе бидат вратени на нивните првобитни вредности.\nОва дејство не може автоматски да се поврати.\nДали сепак сакате да продолжите?"
  },
  "sponsor.tip": {
    "message": "Посетете ја интернет страницата на спонзорот"
  },
  "trust": {
    "message": "Верувај му на $1"
  },
  "unsafeReload.warning": {
    "message": "НЕБЕЗБЕДНО освежување на \n\n$1 [$2]\n\nод [$3]\n\n„NoScript“ НЕМА да ве заштити од ова барање.\n"
  },
  "untrustedOrigin": {
    "message": "извор без доверба"
  },
  "version": {
    "message": "Верзија $1"
  },
  "xss.notify.generic": {
    "message": "„NoScript“ филтрираше можен обид за меѓумесно скриптирање (XSS) од $1. Техничките подробности се запишани во конзолата."
  },
  "xss.notify.showConsole": {
    "message": "Прикажи ја конзолата..."
  },
  "xss.notify.showConsole.accessKey": {
    "message": "к"
  },
  "xss.reason.filterXGet": {
    "message": "Прочистено е сомнителено барање. Првобитната адреса [$1] е побарана од [$2]. Прочистената адреса е [$3].)"
  },
  "xss.reason.filterXGetRef": {
    "message": "Прочистена е сомнителна адреса на упатувач. Адресата [$1] е побарана од [$2]. Прочистената адреса на упатувачот е [$3].)"
  },
  "xss.reason.filterXPost": {
    "message": "Прочистено е сомнително качување на датотека на [$1] од [$2]: сменето е во обично „GET“ барање, што нема можност за качување датотеки."
  }
}